{
    "KPlugin": {
        "Authors": [
            {
                "Email": "calligra_devel@kde.org",
                "Name": "Calligra Team",
                "Name[ca@valencia]": "Equip del Calligra",
                "Name[ca]": "Equip del Calligra",
                "Name[cs]": "Team Calligra",
                "Name[da]": "Calligra-holdet",
                "Name[de]": "Calligra-Team",
                "Name[en_GB]": "Calligra Team",
                "Name[es]": "Calligra Team",
                "Name[et]": "Calligra meeskond",
                "Name[eu]": "Calligra taldea",
                "Name[fi]": "Calligra-työryhmä",
                "Name[fr]": "L'équipe de Calligra",
                "Name[gl]": "Equipo de Calligra",
                "Name[ia]": "Equipa de Calligra",
                "Name[id]": "Tim Calligra",
                "Name[it]": "La squadra di Calligra",
                "Name[ko]": "Calligra 팀",
                "Name[nl]": "Het team van Calligra",
                "Name[pl]": "Zespół Calligry",
                "Name[pt]": "Equipa do Calligra",
                "Name[pt_BR]": "Equipe do Calligra",
                "Name[ru]": "Команда разработчиков Calligra",
                "Name[sk]": "Tím Calligra",
                "Name[sl]": "Ekipa Calligra",
                "Name[sv]": "Calligra-gruppen",
                "Name[uk]": "Команда розробників Calligra",
                "Name[x-test]": "xxCalligra Teamxx",
                "Name[zh_CN]": "Calligra 团队"
            }
        ],
        "Category": "",
        "Dependencies": [],
        "Description": "Text element for Reports",
        "Description[ca@valencia]": "Element de text per a informes",
        "Description[ca]": "Element de text per a informes",
        "Description[cs]": "Textové prvky pro hlášení",
        "Description[de]": "Textelement für Berichte",
        "Description[en_GB]": "Text element for Reports",
        "Description[es]": "Elemento de texto para informes",
        "Description[et]": "Reportsi tekstielement",
        "Description[eu]": "Txostenetarako testu elementua",
        "Description[fi]": "Tekstialkio raportteihin",
        "Description[fr]": "Element de texte pour Rapports",
        "Description[gl]": "Texto para informes.",
        "Description[ia]": "Elemento de Texto pro Reportes",
        "Description[id]": "Elemen teks untuk Laporan",
        "Description[it]": "Elemento di testo per Reports",
        "Description[ko]": "보고서에 대한 텍스트 요소",
        "Description[nl]": "Tekstelement voor rapporten",
        "Description[pl]": "Element tekstowy dla sprawozdań",
        "Description[pt]": "Elemento de texto para os Relatórios",
        "Description[pt_BR]": "Elemento de texto para relatórios",
        "Description[sk]": "Prvok textu pre Reports",
        "Description[sl]": "Element besedila za Reports",
        "Description[sv]": "Textelement för rapporter",
        "Description[uk]": "Елемент тексту для звітів",
        "Description[x-test]": "xxText element for Reportsxx",
        "Description[zh_CN]": "Reports 的文本元素",
        "EnabledByDefault": true,
        "Icon": "text-enriched",
        "Id": "org.kde.kreport.plan.text",
        "License": "LGPL",
        "Name": "Text",
        "Name[ca@valencia]": "Text",
        "Name[ca]": "Text",
        "Name[cs]": "Text",
        "Name[de]": "Text",
        "Name[en_GB]": "Text",
        "Name[es]": "Texto",
        "Name[et]": "Tekst",
        "Name[eu]": "Testua",
        "Name[fi]": "Teksti",
        "Name[fr]": "Texte",
        "Name[gl]": "Texto",
        "Name[ia]": "Texto",
        "Name[id]": "Teks",
        "Name[it]": "Testo",
        "Name[ko]": "텍스트",
        "Name[nl]": "Tekst",
        "Name[pl]": "Tekst",
        "Name[pt]": "Texto",
        "Name[pt_BR]": "Texto",
        "Name[sk]": "Text",
        "Name[sl]": "Besedilo",
        "Name[sv]": "Text",
        "Name[uk]": "Текст",
        "Name[x-test]": "xxTextxx",
        "Name[zh_CN]": "文本",
        "ServiceTypes": [
            "KReport/Element"
        ],
        "Version": "1.0",
        "Website": "https://calligra.org"
    },
    "X-KDE-PluginInfo-LegacyName": "plan.text",
    "X-KReport-Priority": "10"
}
